{
    "frames": [
        {
            "name": "eskimo_idle",
        	"frame": {"x":0,"y":0,"w":64,"h":64}
        },
        {
            "name": "eskimo_walk",
        	"frame": {"x":64,"y":0,"w":64,"h":64}
        },
        {
            "name": "eskimo_idle_ball",
        	"frame": {"x":128,"y":0,"w":64,"h":64}
        },
        {
            "name": "eskimo_walk_ball",
        	"frame": {"x":192,"y":0,"w":64,"h":64}
        },
        {
            "name": "snowman",
        	"frame": {"x":192,"y":64,"w":64,"h":64}
        },
        {
            "name": "ground",
        	"frame": {"x":8,"y":64,"w":32,"h":32}
        },
        {
            "name": "snowball",
        	"frame": {"x":0,"y":64,"w":8,"h":8}
        }
    ]
}
